{
	"info": {
		"_postman_id": "8d761faa-122d-4d31-9215-761310015bb9",
		"name": "Abseensi Work Face Detector and Geolocation",
		"description": "# Introduction\nWhat does your API do?\n\n# Overview\nThings that the developers should know about\n\n# Authentication\nWhat is the preferred way of using the API?\n\n# Error Codes\nWhat errors and status codes can a user expect?\n\n# Rate limit\nIs there a limit to the number of requests a user can send?",
		"schema": "https://schema.getpostman.com/json/collection/v2.1.0/collection.json",
		"_exporter_id": "14188109"
	},
	"item": [
		{
			"name": "Auth",
			"item": [
				{
					"name": "Login",
					"request": {
						"method": "POST",
						"header": [
							{
								"key": "Accept",
								"value": "application/json",
								"type": "text"
							}
						],
						"body": {
							"mode": "formdata",
							"formdata": [
								{
									"key": "email",
									"value": "admin@mail.com",
									"type": "text"
								},
								{
									"key": "password",
									"value": "password",
									"type": "text"
								},
								{
									"key": "remember",
									"value": "TRUE",
									"type": "text"
								}
							]
						},
						"url": {
							"raw": "{{base_url}}/auth/login",
							"host": [
								"{{base_url}}"
							],
							"path": [
								"auth",
								"login"
							]
						}
					},
					"response": []
				},
				{
					"name": "Check Authentication",
					"request": {
						"auth": {
							"type": "bearer",
							"bearer": [
								{
									"key": "token",
									"value": "{{bearer_token}}",
									"type": "string"
								}
							]
						},
						"method": "GET",
						"header": [
							{
								"key": "Accept",
								"value": "application/json",
								"type": "text"
							}
						],
						"url": {
							"raw": "{{base_url}}/auth/user",
							"host": [
								"{{base_url}}"
							],
							"path": [
								"auth",
								"user"
							]
						}
					},
					"response": []
				},
				{
					"name": "Logout",
					"request": {
						"auth": {
							"type": "bearer",
							"bearer": [
								{
									"key": "token",
									"value": "{{bearer_token}}",
									"type": "string"
								}
							]
						},
						"method": "POST",
						"header": [
							{
								"key": "Accept",
								"value": "application/json",
								"type": "text"
							}
						],
						"url": {
							"raw": "{{base_url}}/auth/logout",
							"host": [
								"{{base_url}}"
							],
							"path": [
								"auth",
								"logout"
							]
						}
					},
					"response": []
				}
			]
		},
		{
			"name": "Teachers",
			"item": [
				{
					"name": "Index",
					"request": {
						"auth": {
							"type": "bearer",
							"bearer": [
								{
									"key": "token",
									"value": "{{bearer_token}}",
									"type": "string"
								}
							]
						},
						"method": "GET",
						"header": [
							{
								"key": "Accept",
								"value": "application/json",
								"type": "text"
							}
						],
						"url": {
							"raw": "{{base_url}}/teachers",
							"host": [
								"{{base_url}}"
							],
							"path": [
								"teachers"
							]
						}
					},
					"response": []
				},
				{
					"name": "Detail",
					"request": {
						"auth": {
							"type": "bearer",
							"bearer": [
								{
									"key": "token",
									"value": "{{bearer_token}}",
									"type": "string"
								}
							]
						},
						"method": "GET",
						"header": [
							{
								"key": "Accept",
								"value": "application/json",
								"type": "text"
							}
						],
						"url": {
							"raw": "{{base_url}}/teachers/2ac9d8fc-2b8b-4f88-809f-f5122112a902",
							"host": [
								"{{base_url}}"
							],
							"path": [
								"teachers",
								"2ac9d8fc-2b8b-4f88-809f-f5122112a902"
							]
						}
					},
					"response": []
				},
				{
					"name": "Create",
					"request": {
						"auth": {
							"type": "bearer",
							"bearer": [
								{
									"key": "token",
									"value": "{{bearer_token}}",
									"type": "string"
								}
							]
						},
						"method": "POST",
						"header": [
							{
								"key": "Accept",
								"value": "application/json",
								"type": "text"
							}
						],
						"body": {
							"mode": "formdata",
							"formdata": [
								{
									"key": "fullname",
									"value": "employee dummy 1",
									"type": "text"
								},
								{
									"key": "email",
									"value": "dumm21@gmail.com",
									"type": "text"
								},
								{
									"key": "password",
									"value": "password",
									"type": "text"
								},
								{
									"key": "role",
									"value": "teacher",
									"type": "text"
								},
								{
									"key": "nik",
									"value": "327101012811",
									"type": "text"
								},
								{
									"key": "address",
									"value": "address employee dummy 1",
									"type": "text"
								},
								{
									"key": "marriage",
									"value": "menikah",
									"type": "text"
								},
								{
									"key": "phone_number",
									"value": "0866454787",
									"type": "text"
								},
								{
									"key": "birth_date",
									"value": "2000-05-12",
									"type": "text"
								},
								{
									"key": "birth_place",
									"value": "Bogor",
									"type": "text"
								},
								{
									"key": "gender",
									"value": "male",
									"type": "text"
								},
								{
									"key": "religion",
									"value": "islam",
									"type": "text"
								},
								{
									"key": "employee_tier",
									"value": "guru",
									"type": "text"
								},
								{
									"key": "employee_stats",
									"value": "permanen",
									"type": "text"
								},
								{
									"key": "institution",
									"value": "smk wikrama bogor",
									"type": "text"
								},
								{
									"key": "payroll_date",
									"value": "2000-05-12",
									"type": "text"
								},
								{
									"key": "join_date",
									"value": "2000-05-12",
									"type": "text"
								}
							]
						},
						"url": {
							"raw": "{{base_url}}/teachers",
							"host": [
								"{{base_url}}"
							],
							"path": [
								"teachers"
							]
						}
					},
					"response": []
				},
				{
					"name": "Update",
					"request": {
						"auth": {
							"type": "bearer",
							"bearer": [
								{
									"key": "token",
									"value": "{{bearer_token}}",
									"type": "string"
								}
							]
						},
						"method": "PUT",
						"header": [
							{
								"key": "Accept",
								"value": "application/json",
								"type": "text"
							}
						],
						"body": {
							"mode": "urlencoded",
							"urlencoded": [
								{
									"key": "fullname",
									"value": "new username",
									"type": "text"
								}
							]
						},
						"url": {
							"raw": "{{base_url}}/teachers/2ac9d8fc-2b8b-4f88-809f-f5122112a902",
							"host": [
								"{{base_url}}"
							],
							"path": [
								"teachers",
								"2ac9d8fc-2b8b-4f88-809f-f5122112a902"
							]
						}
					},
					"response": []
				},
				{
					"name": "Delete",
					"request": {
						"auth": {
							"type": "bearer",
							"bearer": [
								{
									"key": "token",
									"value": "{{bearer_token}}",
									"type": "string"
								}
							]
						},
						"method": "DELETE",
						"header": [
							{
								"key": "Accept",
								"value": "application/json",
								"type": "text"
							}
						],
						"url": {
							"raw": "{{base_url}}/teachers/00bde18d-824c-4d0f-813a-057279ac1d90",
							"host": [
								"{{base_url}}"
							],
							"path": [
								"teachers",
								"00bde18d-824c-4d0f-813a-057279ac1d90"
							]
						}
					},
					"response": []
				}
			]
		},
		{
			"name": "Submissions",
			"item": [
				{
					"name": "Index",
					"request": {
						"auth": {
							"type": "bearer",
							"bearer": [
								{
									"key": "token",
									"value": "{{bearer_token}}",
									"type": "string"
								}
							]
						},
						"method": "GET",
						"header": [
							{
								"key": "Accept",
								"value": "application/json",
								"type": "text"
							}
						],
						"url": {
							"raw": "{{base_url}}/submissions",
							"host": [
								"{{base_url}}"
							],
							"path": [
								"submissions"
							]
						}
					},
					"response": []
				},
				{
					"name": "Detail",
					"request": {
						"auth": {
							"type": "bearer",
							"bearer": [
								{
									"key": "token",
									"value": "{{bearer_token}}",
									"type": "string"
								}
							]
						},
						"method": "GET",
						"header": [
							{
								"key": "Accept",
								"value": "application/json",
								"type": "text"
							}
						],
						"url": {
							"raw": "{{base_url}}/submissions/011efcac-f767-4272-b7b1-c8982d1568f7",
							"host": [
								"{{base_url}}"
							],
							"path": [
								"submissions",
								"011efcac-f767-4272-b7b1-c8982d1568f7"
							]
						}
					},
					"response": []
				},
				{
					"name": "Create",
					"request": {
						"auth": {
							"type": "bearer",
							"bearer": [
								{
									"key": "token",
									"value": "{{bearer_token}}",
									"type": "string"
								}
							]
						},
						"method": "POST",
						"header": [
							{
								"key": "Accept",
								"value": "application/json",
								"type": "text"
							}
						],
						"body": {
							"mode": "formdata",
							"formdata": [
								{
									"key": "employee_id",
									"value": "3",
									"type": "text"
								},
								{
									"key": "submission_type",
									"value": "1",
									"type": "text"
								},
								{
									"key": "start_timeoff",
									"value": "2023-05-02",
									"type": "text"
								},
								{
									"key": "finish_timeoff",
									"value": "2023-05-03",
									"type": "text"
								},
								{
									"key": "submission_desc",
									"value": "sadkjsad",
									"type": "text"
								},
								{
									"key": "submission_file",
									"type": "file",
									"src": "/C:/Users/user/Downloads/Data SPP Tahun 2023 (10).pdf"
								}
							]
						},
						"url": {
							"raw": "{{base_url}}/submissions",
							"host": [
								"{{base_url}}"
							],
							"path": [
								"submissions"
							]
						}
					},
					"response": []
				},
				{
					"name": "Update",
					"request": {
						"auth": {
							"type": "bearer",
							"bearer": [
								{
									"key": "token",
									"value": "{{bearer_token}}",
									"type": "string"
								}
							]
						},
						"method": "PUT",
						"header": [
							{
								"key": "Accept",
								"value": "application/json",
								"type": "text"
							}
						],
						"body": {
							"mode": "urlencoded",
							"urlencoded": [
								{
									"key": "employee_id",
									"value": "3",
									"type": "text"
								},
								{
									"key": "submission_type",
									"value": "1",
									"type": "text"
								},
								{
									"key": "start_timeoff",
									"value": "2023-05-02",
									"type": "text"
								},
								{
									"key": "finish_timeoff",
									"value": "2023-05-03",
									"type": "text"
								},
								{
									"key": "submission_desc",
									"value": "update",
									"type": "text"
								}
							]
						},
						"url": {
							"raw": "{{base_url}}/submissions/011efcac-f767-4272-b7b1-c8982d1568f7",
							"host": [
								"{{base_url}}"
							],
							"path": [
								"submissions",
								"011efcac-f767-4272-b7b1-c8982d1568f7"
							]
						}
					},
					"response": []
				},
				{
					"name": "Delete",
					"request": {
						"auth": {
							"type": "bearer",
							"bearer": [
								{
									"key": "token",
									"value": "{{bearer_token}}",
									"type": "string"
								}
							]
						},
						"method": "DELETE",
						"header": [
							{
								"key": "Accept",
								"value": "application/json",
								"type": "text"
							}
						],
						"url": {
							"raw": "{{base_url}}/submissions/011efcac-f767-4272-b7b1-c8982d1568f7",
							"host": [
								"{{base_url}}"
							],
							"path": [
								"submissions",
								"011efcac-f767-4272-b7b1-c8982d1568f7"
							]
						}
					},
					"response": []
				}
			]
		},
		{
			"name": "Attendances",
			"item": [
				{
					"name": "Index",
					"request": {
						"auth": {
							"type": "bearer",
							"bearer": [
								{
									"key": "token",
									"value": "{{bearer_token}}",
									"type": "string"
								}
							]
						},
						"method": "GET",
						"header": [
							{
								"key": "Accept",
								"value": "application/json",
								"type": "text"
							}
						],
						"url": {
							"raw": "{{base_url}}/attendances",
							"host": [
								"{{base_url}}"
							],
							"path": [
								"attendances"
							]
						}
					},
					"response": []
				},
				{
					"name": "Detail",
					"request": {
						"auth": {
							"type": "bearer",
							"bearer": [
								{
									"key": "token",
									"value": "{{bearer_token}}",
									"type": "string"
								}
							]
						},
						"method": "GET",
						"header": [
							{
								"key": "Accept",
								"value": "application/json",
								"type": "text"
							}
						],
						"url": {
							"raw": "{{base_url}}/attendances/f01fcd8a-883f-4e67-bce6-06048a29f47a",
							"host": [
								"{{base_url}}"
							],
							"path": [
								"attendances",
								"f01fcd8a-883f-4e67-bce6-06048a29f47a"
							]
						}
					},
					"response": []
				},
				{
					"name": "Create",
					"request": {
						"auth": {
							"type": "bearer",
							"bearer": [
								{
									"key": "token",
									"value": "{{bearer_token}}",
									"type": "string"
								}
							]
						},
						"method": "POST",
						"header": [
							{
								"key": "Accept",
								"value": "application/json",
								"type": "text"
							}
						],
						"body": {
							"mode": "formdata",
							"formdata": [
								{
									"key": "employee_id",
									"value": "3",
									"type": "text"
								},
								{
									"key": "presence_date",
									"value": "2023-05-02",
									"type": "text"
								},
								{
									"key": "presence_status",
									"value": "hadir",
									"type": "text"
								},
								{
									"key": "presence_desc",
									"value": "hadir",
									"type": "text"
								},
								{
									"key": "clock_in",
									"value": "15:06:40",
									"type": "text"
								},
								{
									"key": "clock_out",
									"value": "19:06:40",
									"type": "text"
								},
								{
									"key": "location_in",
									"value": "-6.595038 106.816635",
									"type": "text"
								},
								{
									"key": "location_out",
									"value": "-6.595038 106.816635",
									"type": "text"
								}
							]
						},
						"url": {
							"raw": "{{base_url}}/attendances",
							"host": [
								"{{base_url}}"
							],
							"path": [
								"attendances"
							]
						}
					},
					"response": []
				},
				{
					"name": "Update",
					"request": {
						"auth": {
							"type": "bearer",
							"bearer": [
								{
									"key": "token",
									"value": "{{bearer_token}}",
									"type": "string"
								}
							]
						},
						"method": "PUT",
						"header": [
							{
								"key": "Accept",
								"value": "application/json",
								"type": "text"
							}
						],
						"body": {
							"mode": "urlencoded",
							"urlencoded": [
								{
									"key": "presence_status",
									"value": "izin",
									"type": "text"
								},
								{
									"key": "presence_desc",
									"value": "izin kawin",
									"type": "text"
								}
							]
						},
						"url": {
							"raw": "{{base_url}}/attendances/f01fcd8a-883f-4e67-bce6-06048a29f47a",
							"host": [
								"{{base_url}}"
							],
							"path": [
								"attendances",
								"f01fcd8a-883f-4e67-bce6-06048a29f47a"
							]
						}
					},
					"response": []
				},
				{
					"name": "Delete",
					"request": {
						"auth": {
							"type": "bearer",
							"bearer": [
								{
									"key": "token",
									"value": "{{bearer_token}}",
									"type": "string"
								}
							]
						},
						"method": "DELETE",
						"header": [
							{
								"key": "Accept",
								"value": "application/json",
								"type": "text"
							}
						],
						"url": {
							"raw": "{{base_url}}/attendances/f01fcd8a-883f-4e67-bce6-06048a29f47a",
							"host": [
								"{{base_url}}"
							],
							"path": [
								"attendances",
								"f01fcd8a-883f-4e67-bce6-06048a29f47a"
							]
						}
					},
					"response": []
				}
			],
			"auth": {
				"type": "bearer",
				"bearer": [
					{
						"key": "token",
						"value": "{{bearer_token}}",
						"type": "string"
					}
				]
			},
			"event": [
				{
					"listen": "prerequest",
					"script": {
						"type": "text/javascript",
						"exec": [
							""
						]
					}
				},
				{
					"listen": "test",
					"script": {
						"type": "text/javascript",
						"exec": [
							""
						]
					}
				}
			]
		},
		{
			"name": "Base Requeest APi",
			"request": {
				"method": "GET",
				"header": [],
				"url": {
					"raw": "{{base_url}}",
					"host": [
						"{{base_url}}"
					]
				}
			},
			"response": []
		}
	],
	"auth": {
		"type": "bearer",
		"bearer": [
			{
				"key": "token",
				"value": "{{bearer_token}}",
				"type": "string"
			}
		]
	},
	"event": [
		{
			"listen": "prerequest",
			"script": {
				"type": "text/javascript",
				"exec": [
					""
				]
			}
		},
		{
			"listen": "test",
			"script": {
				"type": "text/javascript",
				"exec": [
					""
				]
			}
		}
	],
	"variable": [
		{
			"key": "base_url",
			"value": "http://127.0.0.1:8000/api",
			"type": "string"
		},
		{
			"key": "bearer_token",
			"value": "1|Ht4DxcS8Mi75YNbSh0i4hhHj4d0Z318ro9TZMgiw",
			"type": "string"
		}
	]
}